R Models - 1 Basic tidymodels
…
pak::pak(pkgs)

1.2 数据预处理

modeldata 包提供了一些示例数据集，用于在 tidymodels 中进行模型建设和演示。其中 “taxi” 数据集是一个简化的示例数据集，描述了芝加哥出租车司机获得小费的情况。

其详细信息可以使用以下代码查看：

library(modeldata)
taxi

# A tibble: 10,000 × 7
   tip   distance company                      local dow   month  hour
   <fct>    <dbl> <fct>                        <fct> <fct> <fct> <int>
 1 yes      17.2  Chicago Independents         no    Thu   Feb      16
 2 yes       0.88 City Service                 yes   Thu   Mar       8
 3 yes      18.1  other                        no    Mon   Feb      18
 4 yes      20.7  Chicago Independents         no    Mon   Apr       8
 5 yes      12.2  Chicago Independents         no    Sun   Mar      21
 6 yes       0.94 Sun Taxi                     yes   Sat   Apr      23
 7 yes      17.5  Flash Cab                    no    Fri   Mar      12
 8 yes      17.7  other                        no    Sun   Jan       6
 9 yes       1.85 Taxicab Insurance Agency Llc no    Fri   Apr      12
10 yes       1.47 City Service                 no    Tue   Mar      14
# ℹ 9,990 more rows
…
使用 initial_split() 将数据拆分成训练集和测试集。

set.seed(123)
library(rsample)

# random split
(taxi_split <- initial_split(taxi))

<Training/Testing/Total>
<7500/2500/10000>

# access to split data
(taxi_train <- training(taxi_split))

# A tibble: 7,500 × 7
   tip   distance company                   local dow   month  hour
   <fct>    <dbl> <fct>                     <fct> <fct> <fct> <int>
 1 yes       0.7  Taxi Affiliation Services yes   Tue   Mar      18
 2 yes       0.99 Sun Taxi                  yes   Tue   Jan       8
 3 yes       1.78 other                     no    Sat   Mar      22
 4 yes       0    Taxi Affiliation Services yes   Wed   Apr      15
 5 yes       0    Taxi Affiliation Services no    Sun   Jan      21
 6 yes       2.3  other                     no    Sat   Apr      21
 7 yes       6.35 Sun Taxi                  no    Wed   Mar      16
 8 yes       2.79 other                     no    Sun   Feb      14
 9 yes      16.6  other                     no    Sun   Apr      18
10 yes       0.02 Chicago Independents      yes   Sun   Apr      15
# ℹ 7,490 more rows

(taxi_test <- testing(taxi_split))

# A tibble: 2,500 × 7
   tip   distance company                      local dow   month  hour
   <fct>    <dbl> <fct>                        <fct> <fct> <fct> <int>
 1 yes       0.94 Sun Taxi                     yes   Sat   Apr      23
 2 yes       1    Taxi Affiliation Services    no    Mon   Feb      18
 3 yes       1.91 Flash Cab                    no    Wed   Apr      15
 4 yes       1.1  Chicago Independents         no    Sat   Mar      10
 5 yes      11.7  other                        no    Wed   Mar      18
 6 yes      17.8  City Service                 no    Mon   Mar       9
 7 yes       0.53 Taxicab Insurance Agency Llc yes   Wed   Apr       8
 8 yes       1.14 City Service                 no    Wed   Mar      14
 9 yes       1.77 other                        no    Thu   Apr      15
10 yes      18.6  Flash Cab                    no    Thu   Apr      12
# ℹ 2,490 more rows

使用 initial_validation_split() 将数据拆分成训练集、验证集和测试集。

set.seed(123)
(taxi_split_2 = initial_validation_split(taxi, prop = c(0.6, 0.2)))

<Training/Validation/Testing/Total>
<6000/2000/2000/10000>

training(taxi_split_2)

# A tibble: 6,000 × 7
   tip   distance company                      local dow   month  hour
   <fct>    <dbl> <fct>                        <fct> <fct> <fct> <int>
 1 yes      17.2  Chicago Independents         no    Thu   Feb      16
 2 yes      20.7  Chicago Independents         no    Mon   Apr       8
 3 yes      12.2  Chicago Independents         no    Sun   Mar      21
 4 yes       1.85 Taxicab Insurance Agency Llc no    Fri   Apr      12
 5 yes       0.53 Sun Taxi                     no    Tue   Mar      18
 6 yes      16.8  Sun Taxi                     no    Wed   Apr      12
 7 yes       0.86 other                        no    Tue   Feb      13
 8 no        0.4  other                        yes   Fri   Mar      17
 9 yes       0.1  Taxi Affiliation Services    no    Sun   Apr      10
10 yes       1.6  Taxi Affiliation Services    no    Tue   Apr       8
# ℹ 5,990 more rows

testing(taxi_split_2)

# A tibble: 2,000 × 7
   tip   distance company                      local dow   month  hour
   <fct>    <dbl> <fct>                        <fct> <fct> <fct> <int>
 1 yes       0.88 City Service                 yes   Thu   Mar       8
 2 yes       1.47 City Service                 no    Tue   Mar      14
 3 yes       1    other                        no    Fri   Mar      17
 4 yes       1.35 Taxicab Insurance Agency Llc no    Thu   Feb      17
 5 yes       1.14 City Service                 no    Wed   Mar      14
 6 yes       1.77 other                        no    Thu   Apr      15
 7 no        1.07 Sun Taxi                     no    Fri   Feb      15
 8 no        1.13 other                        no    Sat   Feb      14
 9 yes      12.1  Chicago Independents         no    Tue   Jan      11
10 yes       1.91 Sun Taxi                     no    Tue   Jan      17
# ℹ 1,990 more rows

validation(taxi_split_2)

# A tibble: 2,000 × 7
   tip   distance company                      local dow   month  hour
   <fct>    <dbl> <fct>                        <fct> <fct> <fct> <int>
 1 yes      18.1  other                        no    Mon   Feb      18
 2 yes       0.94 Sun Taxi                     yes   Sat   Apr      23
 3 yes      17.5  Flash Cab                    no    Fri   Mar      12
 4 yes      17.7  other                        no    Sun   Jan       6
 5 yes       6.65 Taxicab Insurance Agency Llc no    Sun   Apr      11
 6 yes       1.21 Sun Taxi                     yes   Thu   Apr      19
 7 yes       1    Taxi Affiliation Services    no    Mon   Feb      18
 8 yes       1.91 Flash Cab                    no    Wed   Apr      15
 9 yes       1.1  Chicago Independents         no    Sat   Mar      10
10 no        0.96 Taxicab Insurance Agency Llc no    Mon   Apr       8
# ℹ 1,990 more rows
…
Edit this code to make a workflow with your own model of choice.

Extension/Challenge: Other than formulas, what kinds of preprocessors are supported?

1.4.4 使用模型预测

推荐使用 augment() 方法进行预测，与传统的 predict() 相比的差异如下。

tree_fit <-
  workflow(tip ~ ., tree_spec) %>% 
  fit(data = taxi_train) 

predict(tree_fit, new_data = taxi_test)

# A tibble: 2,500 × 1
   .pred_class
   <fct>      
 1 yes        
 2 yes        
 3 yes        
 4 yes        
 5 yes        
 6 yes        
 7 yes        
 8 yes        
 9 yes        
10 yes        
# ℹ 2,490 more rows

augment(tree_fit, new_data = taxi_test)

# A tibble: 2,500 × 10
   tip   distance company local dow   month  hour .pred_class .pred_yes .pred_no
   <fct>    <dbl> <fct>   <fct> <fct> <fct> <int> <fct>           <dbl>    <dbl>
 1 yes       0.94 Sun Ta… yes   Sat   Apr      23 yes             0.917   0.0828
 2 yes       1    Taxi A… no    Mon   Feb      18 yes             0.917   0.0828
 3 yes       1.91 Flash … no    Wed   Apr      15 yes             0.917   0.0828
 4 yes       1.1  Chicag… no    Sat   Mar      10 yes             0.917   0.0828
 5 yes      11.7  other   no    Wed   Mar      18 yes             0.790   0.210 
 6 yes      17.8  City S… no    Mon   Mar       9 yes             0.962   0.0383
 7 yes       0.53 Taxica… yes   Wed   Apr       8 yes             0.917   0.0828
 8 yes       1.14 City S… no    Wed   Mar      14 yes             0.917   0.0828
 9 yes       1.77 other   no    Thu   Apr      15 yes             0.917   0.0828
10 yes      18.6  Flash … no    Thu   Apr      12 yes             0.962   0.0383
# ℹ 2,490 more rows
…
# Save the assessment set results
taxi_preds <- collect_predictions(taxi_res)
taxi_preds

# A tibble: 8,000 × 7
   id     .pred_yes .pred_no  .row .pred_class tip   .config             
   <chr>      <dbl>    <dbl> <int> <fct>       <fct> <chr>               
 1 Fold01     0.938   0.0615    14 yes         yes   Preprocessor1_Model1
 2 Fold01     0.946   0.0544    19 yes         yes   Preprocessor1_Model1
 3 Fold01     0.973   0.0269    33 yes         yes   Preprocessor1_Model1
 4 Fold01     0.903   0.0971    43 yes         yes   Preprocessor1_Model1
 5 Fold01     0.973   0.0269    74 yes         yes   Preprocessor1_Model1
 6 Fold01     0.903   0.0971   103 yes         yes   Preprocessor1_Model1
 7 Fold01     0.915   0.0851   104 yes         no    Preprocessor1_Model1
 8 Fold01     0.903   0.0971   124 yes         yes   Preprocessor1_Model1
 9 Fold01     0.667   0.333    126 yes         yes   Preprocessor1_Model1
10 Fold01     0.949   0.0510   128 yes         yes   Preprocessor1_Model1
# ℹ 7,990 more rows

# Evaluating model performance
taxi_preds %>% 
  group_by(id) %>%
  taxi_metrics(truth = tip, estimate = .pred_class)

# A tibble: 30 × 4
   id     .metric  .estimator .estimate
   <chr>  <chr>    <chr>          <dbl>
 1 Fold01 accuracy binary         0.905
 2 Fold02 accuracy binary         0.925
 3 Fold03 accuracy binary         0.926
 4 Fold04 accuracy binary         0.915
 5 Fold05 accuracy binary         0.902
 6 Fold06 accuracy binary         0.912
 7 Fold07 accuracy binary         0.906
 8 Fold08 accuracy binary         0.91 
 9 Fold09 accuracy binary         0.918
10 Fold10 accuracy binary         0.931
# ℹ 20 more rows
…
## What is in final_fit
collect_metrics(final_fit)

# A tibble: 2 × 4
  .metric  .estimator .estimate .config             
  <chr>    <chr>          <dbl> <chr>               
1 accuracy binary         0.914 Preprocessor1_Model1
2 roc_auc  binary         0.644 Preprocessor1_Model1

# metrics computed with the test set
collect_predictions(final_fit)

# A tibble: 2,000 × 7
   id               .pred_yes .pred_no  .row .pred_class tip   .config          
   <chr>                <dbl>    <dbl> <int> <fct>       <fct> <chr>            
 1 train/test split     0.958  0.0415      4 yes         yes   Preprocessor1_Mo…
 2 train/test split     0.931  0.0689     10 yes         yes   Preprocessor1_Mo…
 3 train/test split     0.969  0.0313     19 yes         yes   Preprocessor1_Mo…
 4 train/test split     0.889  0.111      23 yes         yes   Preprocessor1_Mo…
 5 train/test split     0.945  0.0551     28 yes         yes   Preprocessor1_Mo…
 6 train/test split     0.981  0.0193     34 yes         yes   Preprocessor1_Mo…
 7 train/test split     0.952  0.0476     35 yes         yes   Preprocessor1_Mo…
 8 train/test split     0.936  0.0637     38 yes         yes   Preprocessor1_Mo…
 9 train/test split     0.991  0.00895    40 yes         yes   Preprocessor1_Mo…
10 train/test split     0.947  0.0526     42 yes         no    Preprocessor1_Mo…
# ℹ 1,990 more rows
…
