R Models - 2 Advanced tidymodels
…
hotel_rec <- 
  recipe(avg_price_per_room ~ ., data = hotel_train) %>% 
  step_dummy(all_nominal_predictors()) %>% 
  step_zv(all_predictors()) %>% 
  step_normalize(all_numeric_predictors()) %>% 
  step_corr(all_numeric_predictors(), threshold = 0.9)
summary(hotel_rec)

# A tibble: 27 × 4
   variable                type      role      source  
   <chr>                   <list>    <chr>     <chr>   
 1 lead_time               <chr [2]> predictor original
 2 stays_in_weekend_nights <chr [2]> predictor original
 3 stays_in_week_nights    <chr [2]> predictor original
 4 adults                  <chr [2]> predictor original
 5 children                <chr [2]> predictor original
 6 babies                  <chr [2]> predictor original
 7 meal                    <chr [3]> predictor original
 8 country                 <chr [3]> predictor original
 9 market_segment          <chr [3]> predictor original
10 distribution_channel    <chr [3]> predictor original
# ℹ 17 more rows

hotel_rec <- 
  recipe(avg_price_per_room ~ ., data = hotel_train) %>% 
  step_dummy(all_nominal_predictors()) %>% 
  step_zv(all_predictors()) %>% 
  step_normalize(all_numeric_predictors()) %>% 
  embed::step_umap(all_numeric_predictors(), outcome = vars(avg_price_per_room))
summary(hotel_rec)

# A tibble: 27 × 4
   variable                type      role      source  
   <chr>                   <list>    <chr>     <chr>   
 1 lead_time               <chr [2]> predictor original
 2 stays_in_weekend_nights <chr [2]> predictor original
 3 stays_in_week_nights    <chr [2]> predictor original
 4 adults                  <chr [2]> predictor original
 5 children                <chr [2]> predictor original
 6 babies                  <chr [2]> predictor original
 7 meal                    <chr [3]> predictor original
 8 country                 <chr [3]> predictor original
 9 market_segment          <chr [3]> predictor original
10 distribution_channel    <chr [3]> predictor original
# ℹ 17 more rows

hotel_rec <- 
  recipe(avg_price_per_room ~ ., data = hotel_train) %>% 
  step_dummy(all_nominal_predictors()) %>% 
  step_zv(all_predictors()) %>% 
  step_normalize(all_numeric_predictors()) %>% 
  embed::step_umap(all_numeric_predictors(), outcome = vars(avg_price_per_room))
summary(hotel_rec)

# A tibble: 27 × 4
   variable                type      role      source  
   <chr>                   <list>    <chr>     <chr>   
 1 lead_time               <chr [2]> predictor original
 2 stays_in_weekend_nights <chr [2]> predictor original
 3 stays_in_week_nights    <chr [2]> predictor original
 4 adults                  <chr [2]> predictor original
 5 children                <chr [2]> predictor original
 6 babies                  <chr [2]> predictor original
 7 meal                    <chr [3]> predictor original
 8 country                 <chr [3]> predictor original
 9 market_segment          <chr [3]> predictor original
10 distribution_channel    <chr [3]> predictor original
# ℹ 17 more rows

hotel_rec <- 
  recipe(avg_price_per_room ~ ., data = hotel_train) %>% 
  step_dummy(all_nominal_predictors()) %>% 
  step_zv(all_predictors()) %>% 
  step_normalize(all_numeric_predictors()) %>% 
  step_spline_natural(arrival_date_num, deg_free = 10)
summary(hotel_rec)

# A tibble: 27 × 4
   variable                type      role      source  
   <chr>                   <list>    <chr>     <chr>   
 1 lead_time               <chr [2]> predictor original
 2 stays_in_weekend_nights <chr [2]> predictor original
 3 stays_in_week_nights    <chr [2]> predictor original
 4 adults                  <chr [2]> predictor original
 5 children                <chr [2]> predictor original
 6 babies                  <chr [2]> predictor original
 7 meal                    <chr [3]> predictor original
 8 country                 <chr [3]> predictor original
 9 market_segment          <chr [3]> predictor original
10 distribution_channel    <chr [3]> predictor original
# ℹ 17 more rows
…
每次创建完一个食谱后，都使用了 summary 函数查看了该食谱的内容。这样可以帮助我们理解每一步预处理操作对数据的影响。

下面这段代码首先创建了一个名为 hotel_indicators 的预处理 “recipe”，然后利用这个 “recipe” 和简单线性回归模型建立了一个工作流（workflow），最后使用10折交叉验证的方式对这个工作流进行了拟合并评估模型性能。

具体步骤包括：

hotel_indicators <-
  recipe(avg_price_per_room ~ ., data = hotel_train) %>% 
  step_YeoJohnson(lead_time) %>%
  step_dummy(all_nominal_predictors()) %>%
  step_zv(all_predictors()) %>% 
  step_spline_natural(arrival_date_num, deg_free = 10)
summary(hotel_indicators)

# A tibble: 27 × 4
   variable                type      role      source  
   <chr>                   <list>    <chr>     <chr>   
 1 lead_time               <chr [2]> predictor original
 2 stays_in_weekend_nights <chr [2]> predictor original
 3 stays_in_week_nights    <chr [2]> predictor original
 4 adults                  <chr [2]> predictor original
 5 children                <chr [2]> predictor original
 6 babies                  <chr [2]> predictor original
 7 meal                    <chr [3]> predictor original
 8 country                 <chr [3]> predictor original
 9 market_segment          <chr [3]> predictor original
10 distribution_channel    <chr [3]> predictor original
# ℹ 17 more rows
…
collect_metrics(hotel_lm_res)

# A tibble: 2 × 6
  .metric .estimator   mean     n std_err .config             
  <chr>   <chr>       <dbl> <int>   <dbl> <chr>               
1 mae     standard   16.7      10 0.251   Preprocessor1_Model1
2 rsq     standard    0.883    10 0.00532 Preprocessor1_Model1

收集评估指标：使用 collect_metrics(hotel_lm_res) 命令收集模型的评估指标。

# Since we used `save_pred = TRUE`
lm_cv_pred <- collect_predictions(hotel_lm_res)
lm_cv_pred %>% print(n = 7)

# A tibble: 3,749 × 5
  id     .pred  .row avg_price_per_room .config             
  <chr>  <dbl> <int>              <dbl> <chr>               
1 Fold01  26.2    31               54   Preprocessor1_Model1
2 Fold01  23.0    35               48   Preprocessor1_Model1
3 Fold01  68.9    45               50   Preprocessor1_Model1
4 Fold01  60.2    47               55   Preprocessor1_Model1
5 Fold01  48.6    59               52.8 Preprocessor1_Model1
6 Fold01  49.0    67               49   Preprocessor1_Model1
7 Fold01  49.0    72               49   Preprocessor1_Model1
# ℹ 3,742 more rows
…
