R Models - 7 Linear Model For House Price Predication
…
file = xfun::magic_path("ch6_house.csv")
house_raw <- readr::read_csv(file)

Rows: 21613 Columns: 10
── Column specification ────────────────────────────────────────────────────────
Delimiter: ","
dbl (10): price, bedrooms, bathrooms, sqft_living, sqft_lot, floors, conditi...

ℹ Use `spec()` to retrieve the full column specification for this data.
ℹ Specify the column types or set `show_col_types = FALSE` to quiet this message.

house_raw

# A tibble: 21,613 × 10
     price bedrooms bathrooms sqft_living sqft_lot floors condition grade
     <dbl>    <dbl>     <dbl>       <dbl>    <dbl>  <dbl>     <dbl> <dbl>
 1  221900        3      1           1180     5650      1         3     7
 2  538000        3      2.25        2570     7242      2         3     7
 3  180000        2      1            770    10000      1         3     6
 4  604000        4      3           1960     5000      1         5     7
 5  510000        3      2           1680     8080      1         3     8
 6 1230000        4      4.5         5420   101930      1         3    11
 7  257500        3      2.25        1715     6819      2         3     7
 8  291850        3      1.5         1060     9711      1         3     7
 9  229500        3      1           1780     7470      1         3     7
10  323000        3      2.5         1890     6560      2         3     7
# ℹ 21,603 more rows
# ℹ 2 more variables: sqft_above <dbl>, yr_built <dbl>
…
# 划分数据集
set.seed(20240206)
(house_split = initial_split(house_raw, strata = price))

<Training/Testing/Total>
<16209/5404/21613>

# 训练集和测试集
(house_train = training(house_split))

# A tibble: 16,209 × 10
    price bedrooms bathrooms sqft_living sqft_lot floors condition grade
    <dbl>    <dbl>     <dbl>       <dbl>    <dbl>  <dbl>     <dbl> <dbl>
 1 180000        2       1           770    10000    1           3     6
 2 291850        3       1.5        1060     9711    1           3     7
 3 229500        3       1          1780     7470    1           3     7
 4 310000        3       1          1430    19901    1.5         4     7
 5 230000        3       1          1250     9774    1           4     7
 6 233000        3       2          1710     4697    1.5         5     6
 7 280000        2       1.5        1190     1265    3           3     7
 8 240000        4       1          1220     8075    1           2     7
 9 309000        3       1          1280     9656    1           4     6
10 210490        3       1           990     8528    1           3     6
# ℹ 16,199 more rows
# ℹ 2 more variables: sqft_above <dbl>, yr_built <dbl>

(house_test = testing(house_split))

# A tibble: 5,404 × 10
    price bedrooms bathrooms sqft_living sqft_lot floors condition grade
    <dbl>    <dbl>     <dbl>       <dbl>    <dbl>  <dbl>     <dbl> <dbl>
 1 221900        3      1           1180     5650      1         3     7
 2 510000        3      2           1680     8080      1         3     8
 3 257500        3      2.25        1715     6819      2         3     7
 4 468000        2      1           1160     6000      1         4     7
 5 400000        3      1.75        1370     9680      1         4     7
 6 189000        2      1           1200     9850      1         4     7
 7 285000        5      2.5         2270     6300      2         3     8
 8 252700        2      1.5         1070     9643      1         3     7
 9 329000        3      2.25        2450     6500      2         4     8
10 719000        4      2.5         2570     7173      2         3     8
# ℹ 5,394 more rows
# ℹ 2 more variables: sqft_above <dbl>, yr_built <dbl>
…
