R Models - 6 Example of tidymodels
…
rf_spec <- rand_forest() %>% set_engine("randomForest", importance = TRUE)  |> 
    set_mode("regression")

# 定义工作流
rf_workflow <- workflow() %>% add_model(rf_spec) %>% add_recipe(pca_recipe)

# 训练模型
rf_fit <- fit(rf_workflow, data = train_data)

# 进行预测
predictions <- rf_fit %>% predict(test_data) %>% bind_cols(test_data)
predictions %>% show()

# A tibble: 25 × 102
     .pred     V1      V2      V3      V4      V5      V6      V7      V8
     <dbl>  <dbl>   <dbl>   <dbl>   <dbl>   <dbl>   <dbl>   <dbl>   <dbl>
 1  2.84   -0.560 -0.710   2.20   -0.715  -0.0736 -0.602   1.07   -0.728 
 2  1.28    1.72  -0.0450 -0.476   0.331  -1.65   -0.0951 -0.211   0.590 
 3  0.712  -0.446  0.919  -0.0540  2.04    0.227  -0.0792 -0.849   0.748 
 4 -0.307   0.401 -1.62    1.23   -1.73    0.653   0.882   1.69   -0.0936
 5  0.0653  0.111 -0.0556 -0.516  -0.602  -0.123   0.206  -0.0160 -0.0867
 6  0.978  -1.97  -0.641  -0.723  -1.26    0.430   0.310  -0.675  -0.287 
 7  1.85    0.701 -0.850  -1.24    1.68    0.535  -1.04   -1.22    0.373 
 8  1.54    0.838  0.235  -0.705  -0.0608  2.40    1.24    0.171   0.564 
 9  1.47    0.426  1.44    1.96    1.02   -0.191   0.605  -0.679   1.74  
10 -0.130  -0.295  0.452  -0.0903 -1.19    0.378  -0.506  -1.86    0.881 
# ℹ 15 more rows
# ℹ 93 more variables: V9 <dbl>, V10 <dbl>, V11 <dbl>, V12 <dbl>, V13 <dbl>,
#   V14 <dbl>, V15 <dbl>, V16 <dbl>, V17 <dbl>, V18 <dbl>, V19 <dbl>,
#   V20 <dbl>, V21 <dbl>, V22 <dbl>, V23 <dbl>, V24 <dbl>, V25 <dbl>,
#   V26 <dbl>, V27 <dbl>, V28 <dbl>, V29 <dbl>, V30 <dbl>, V31 <dbl>,
#   V32 <dbl>, V33 <dbl>, V34 <dbl>, V35 <dbl>, V36 <dbl>, V37 <dbl>,
#   V38 <dbl>, V39 <dbl>, V40 <dbl>, V41 <dbl>, V42 <dbl>, V43 <dbl>, …
…
